…
From what we can see by the returned table, there are **2,304** NA's / missing values for the steps columns. Another interesting stat to note is that the average amount of steps taken in an interval is **37.38** while the max amount taken in an interval is a grand **806**!

# 1. What is mean total number of steps taken per day?

To accomplish this, we will need to sum up the number of steps on every given day in the dataset. From there we can plot this in a histogram and then calculate the median and mean for the number of steps taken per day. **Let's go!**


```r
activityByDaydf <- activitydf %>% na.omit() %>% group_by(date) %>% summarise(sumSteps = sum(steps))
activityByDaydf
```

```
## # A tibble: 53 x 2
##    date       sumSteps
##  * <fct>         <int>
##  1 2012-10-02      126
##  2 2012-10-03    11352
##  3 2012-10-04    12116
##  4 2012-10-05    13294
##  5 2012-10-06    15420
##  6 2012-10-07    11015
##  7 2012-10-09    12811
##  8 2012-10-10     9900
##  9 2012-10-11    10304
## 10 2012-10-12    17382
## # ... with 43 more rows
```
…
So the mean is **10766.19** steps and the median is **10765** steps.


# 2. What is the Daily Activity Pattern?

To get the data for the graph, we must average the steps column by the interval column over every day in the dataset:


```r
activityTS <- activitydf %>% na.omit() %>% group_by(interval) %>% summarise(meanSteps = mean(steps))
activityTS
```

```
## # A tibble: 288 x 2
##    interval meanSteps
##  *    <int>     <dbl>
##  1        0    1.72  
##  2        5    0.340 
##  3       10    0.132 
##  4       15    0.151 
##  5       20    0.0755
##  6       25    2.09  
##  7       30    0.528 
##  8       35    0.868 
##  9       40    0     
## 10       45    1.47  
## # ... with 278 more rows
```
…
